# 
# 

newmtl ScoutBody
Ns 96.078431
Ka 0.000000 0.000000 0.000000
Kd 0.640000 0.640000 0.640000
Ks 0.000000 0.000000 0.000000
Ni 1.000000
d 1.000000
illum 1
map_Kd scout_body_blue_d.tga

newmtl ScoutEye
Ns 96.078431
Ka 0.000000 0.000000 0.000000
Kd 0.640000 0.640000 0.640000
Ks 0.000000 0.000000 0.000000
Ni 1.000000
d 1.000000
illum 1
map_Kd scout_eye_d.tga

newmtl ScoutHead
Ns 96.078431
Ka 0.000000 0.000000 0.000000
Kd 0.640000 0.640000 0.640000
Ks 0.000000 0.000000 0.000000
Ni 1.000000
d 1.000000
illum 1
map_Kd scout_head_d.tga
